<?xml version="1.0" encoding="UTF-8" standalone="no"?>
<!-- Created with Inkscape (http://www.inkscape.org/) -->

<svg
   xmlns:dc="http://purl.org/dc/elements/1.1/"
   xmlns:cc="http://creativecommons.org/ns#"
   xmlns:rdf="http://www.w3.org/1999/02/22-rdf-syntax-ns#"
   xmlns:svg="http://www.w3.org/2000/svg"
   xmlns="http://www.w3.org/2000/svg"
   xmlns:sodipodi="http://sodipodi.sourceforge.net/DTD/sodipodi-0.dtd"
   xmlns:inkscape="http://www.inkscape.org/namespaces/inkscape"
   width="190.52647mm"
   height="91.411011mm"
   viewBox="0 0 190.52647 91.411011"
   version="1.1"
   id="svg4877"
   inkscape:version="0.92.5 (2060ec1f9f, 2020-04-08)"
   sodipodi:docname="fig_classif_dist_min_classif.svg"
   inkscape:export-filename="/home/poulpe/Enseignement/fiches_focus_online/BriquesDeGeomatique/figures/fig_classif_dist_min_classif.png"
   inkscape:export-xdpi="150"
   inkscape:export-ydpi="150">
  <defs
     id="defs4871">
    <marker
       inkscape:stockid="Arrow1Mend"
       orient="auto"
       refY="0"
       refX="0"
       id="Arrow1Mend-3"
       style="overflow:visible"
       inkscape:isstock="true">
      <path
         inkscape:connector-curvature="0"
         id="path1852-4"
         d="M 0,0 5,-5 -12.5,0 5,5 Z"
         style="fill:#000000;fill-opacity:1;fill-rule:evenodd;stroke:#000000;stroke-width:1.00000003pt;stroke-opacity:1"
         transform="matrix(-0.4,0,0,-0.4,-4,0)" />
    </marker>
    <marker
       inkscape:stockid="Arrow1Mend"
       orient="auto"
       refY="0"
       refX="0"
       id="marker2465-9"
       style="overflow:visible"
       inkscape:isstock="true">
      <path
         inkscape:connector-curvature="0"
         id="path2463-0"
         d="M 0,0 5,-5 -12.5,0 5,5 Z"
         style="fill:#000000;fill-opacity:1;fill-rule:evenodd;stroke:#000000;stroke-width:1.00000003pt;stroke-opacity:1"
         transform="matrix(-0.4,0,0,-0.4,-4,0)" />
    </marker>
    <marker
       inkscape:stockid="Arrow1Mend"
       orient="auto"
       refY="0"
       refX="0"
       id="Arrow1Mend-3-8"
       style="overflow:visible"
       inkscape:isstock="true">
      <path
         inkscape:connector-curvature="0"
         id="path1852-4-6"
         d="M 0,0 5,-5 -12.5,0 5,5 Z"
         style="fill:#000000;fill-opacity:1;fill-rule:evenodd;stroke:#000000;stroke-width:1.00000003pt;stroke-opacity:1"
         transform="matrix(-0.4,0,0,-0.4,-4,0)" />
    </marker>
    <marker
       inkscape:stockid="Arrow1Mend"
       orient="auto"
       refY="0"
       refX="0"
       id="marker2465-9-8"
       style="overflow:visible"
       inkscape:isstock="true">
      <path
         inkscape:connector-curvature="0"
         id="path2463-0-2"
         d="M 0,0 5,-5 -12.5,0 5,5 Z"
         style="fill:#000000;fill-opacity:1;fill-rule:evenodd;stroke:#000000;stroke-width:1.00000003pt;stroke-opacity:1"
         transform="matrix(-0.4,0,0,-0.4,-4,0)" />
    </marker>
  </defs>
  <sodipodi:namedview
     id="base"
     pagecolor="#ffffff"
     bordercolor="#666666"
     borderopacity="1.0"
     inkscape:pageopacity="0.0"
     inkscape:pageshadow="2"
     inkscape:zoom="1.7317038"
     inkscape:cx="360.05003"
     inkscape:cy="172.74522"
     inkscape:document-units="mm"
     inkscape:current-layer="layer1"
     showgrid="false"
     inkscape:window-width="1920"
     inkscape:window-height="1011"
     inkscape:window-x="0"
     inkscape:window-y="0"
     inkscape:window-maximized="1"
     fit-margin-top="0"
     fit-margin-left="0"
     fit-margin-right="0"
     fit-margin-bottom="0" />
  <metadata
     id="metadata4874">
    <rdf:RDF>
      <cc:Work
         rdf:about="">
        <dc:format>image/svg+xml</dc:format>
        <dc:type
           rdf:resource="http://purl.org/dc/dcmitype/StillImage" />
        <dc:title></dc:title>
      </cc:Work>
    </rdf:RDF>
  </metadata>
  <g
     inkscape:label="Calque 1"
     inkscape:groupmode="layer"
     id="layer1"
     transform="translate(-3.5274679,-72.393185)">
    <g
       id="g6499">
      <path
         inkscape:connector-curvature="0"
         id="path1794-2"
         d="M 11.786012,153.96974 V 73.969733"
         style="fill:none;stroke:#000000;stroke-width:0.80000001;stroke-linecap:butt;stroke-linejoin:miter;stroke-miterlimit:4;stroke-dasharray:none;stroke-opacity:1;marker-end:url(#marker2465-9)" />
      <path
         inkscape:connector-curvature="0"
         id="path1794-6-0"
         d="m 11.786012,153.96974 h 80"
         style="fill:none;stroke:#000000;stroke-width:0.80000001;stroke-linecap:butt;stroke-linejoin:miter;stroke-miterlimit:4;stroke-dasharray:none;stroke-opacity:1;marker-end:url(#Arrow1Mend-3)" />
      <text
         transform="rotate(-90)"
         id="text1813-1"
         y="8.7274122"
         x="-120.80497"
         style="font-style:normal;font-weight:normal;font-size:10.58333302px;line-height:1.25;font-family:sans-serif;letter-spacing:0px;word-spacing:0px;fill:#000000;fill-opacity:1;stroke:none;stroke-width:0.26458332"
         xml:space="preserve"><tspan
           style="font-style:normal;font-variant:normal;font-weight:normal;font-stretch:normal;font-size:7.05555534px;font-family:'TeX Gyre Schola';-inkscape-font-specification:'TeX Gyre Schola';stroke-width:0.26458332"
           y="8.7274122"
           x="-120.80497"
           id="tspan1811-9"
           sodipodi:role="line">Bleu</tspan></text>
      <text
         id="text1813-4-6"
         y="163.69836"
         x="29.767345"
         style="font-style:normal;font-weight:normal;font-size:10.58333302px;line-height:1.25;font-family:sans-serif;letter-spacing:0px;word-spacing:0px;fill:#000000;fill-opacity:1;stroke:none;stroke-width:0.26458332"
         xml:space="preserve"><tspan
           style="font-style:normal;font-variant:normal;font-weight:normal;font-stretch:normal;font-size:7.05555534px;font-family:'TeX Gyre Schola';-inkscape-font-specification:'TeX Gyre Schola';stroke-width:0.26458332"
           y="163.69836"
           x="29.767345"
           id="tspan1811-3-2"
           sodipodi:role="line">PIR</tspan></text>
      <circle
         r="2.5390604"
         cy="136.58055"
         cx="17.754505"
         id="path4247"
         style="opacity:1;fill:#0023ff;fill-opacity:1;stroke:none;stroke-width:0.90000004;stroke-miterlimit:4;stroke-dasharray:none;stroke-dashoffset:0;stroke-opacity:0.31372549" />
      <circle
         r="2.5390604"
         cy="95.645073"
         cx="68.377434"
         id="path4247-7"
         style="opacity:1;fill:#ff1800;fill-opacity:1;stroke:none;stroke-width:0.9000001;stroke-miterlimit:4;stroke-dasharray:none;stroke-dashoffset:0;stroke-opacity:0.31372549" />
      <circle
         r="2.5390604"
         cy="144.5554"
         cx="75.796425"
         id="path4247-8"
         style="opacity:1;fill:#00ff24;fill-opacity:1;stroke:none;stroke-width:0.9000001;stroke-miterlimit:4;stroke-dasharray:none;stroke-dashoffset:0;stroke-opacity:0.31372549" />
      <text
         id="text1813-4-6-4-5"
         y="160.90483"
         x="9.5095015"
         style="font-style:normal;font-weight:normal;font-size:10.58333302px;line-height:1.25;font-family:sans-serif;letter-spacing:0px;word-spacing:0px;fill:#000000;fill-opacity:1;stroke:none;stroke-width:0.26458332"
         xml:space="preserve"><tspan
           style="font-style:normal;font-variant:normal;font-weight:normal;font-stretch:normal;font-size:7.05555534px;font-family:'TeX Gyre Schola';-inkscape-font-specification:'TeX Gyre Schola';stroke-width:0.26458332"
           y="160.90483"
           x="9.5095015"
           id="tspan1811-3-2-1-16"
           sodipodi:role="line">0</tspan></text>
      <text
         id="text1813-4-6-4-7-6"
         y="161.01068"
         x="89.862999"
         style="font-style:normal;font-weight:normal;font-size:10.58333302px;line-height:1.25;font-family:sans-serif;letter-spacing:0px;word-spacing:0px;fill:#000000;fill-opacity:1;stroke:none;stroke-width:0.26458332"
         xml:space="preserve"><tspan
           style="font-style:normal;font-variant:normal;font-weight:normal;font-stretch:normal;font-size:7.05555534px;font-family:'TeX Gyre Schola';-inkscape-font-specification:'TeX Gyre Schola';stroke-width:0.26458332"
           y="161.01068"
           x="89.862999"
           id="tspan1811-3-2-1-1-2"
           sodipodi:role="line">1</tspan></text>
      <text
         id="text1813-4-6-4-1-1"
         y="155.44797"
         x="5.3679609"
         style="font-style:normal;font-weight:normal;font-size:10.58333302px;line-height:1.25;font-family:sans-serif;letter-spacing:0px;word-spacing:0px;fill:#000000;fill-opacity:1;stroke:none;stroke-width:0.26458332"
         xml:space="preserve"><tspan
           style="font-style:normal;font-variant:normal;font-weight:normal;font-stretch:normal;font-size:7.05555534px;font-family:'TeX Gyre Schola';-inkscape-font-specification:'TeX Gyre Schola';stroke-width:0.26458332"
           y="155.44797"
           x="5.3679609"
           id="tspan1811-3-2-1-17-9"
           sodipodi:role="line">0</tspan></text>
      <text
         id="text1813-4-6-4-7-0-6"
         y="77.360298"
         x="5.4949675"
         style="font-style:normal;font-weight:normal;font-size:10.58333302px;line-height:1.25;font-family:sans-serif;letter-spacing:0px;word-spacing:0px;fill:#000000;fill-opacity:1;stroke:none;stroke-width:0.26458332"
         xml:space="preserve"><tspan
           style="font-style:normal;font-variant:normal;font-weight:normal;font-stretch:normal;font-size:7.05555534px;font-family:'TeX Gyre Schola';-inkscape-font-specification:'TeX Gyre Schola';stroke-width:0.26458332"
           y="77.360298"
           x="5.4949675"
           id="tspan1811-3-2-1-1-4-4"
           sodipodi:role="line">1</tspan></text>
      <path
         inkscape:connector-curvature="0"
         id="path5658"
         d="m 75.848282,153.62845 v -9.07143 h -63.68898"
         style="fill:none;stroke:#00ff24;stroke-width:0.40000001;stroke-linecap:butt;stroke-linejoin:miter;stroke-miterlimit:4;stroke-dasharray:1.2, 1.2;stroke-dashoffset:0;stroke-opacity:1" />
      <path
         inkscape:connector-curvature="0"
         id="path5660"
         d="M 17.828942,153.62845 V 136.9975 h -6.04762"
         style="fill:none;stroke:#0023ff;stroke-width:0.40000001;stroke-linecap:butt;stroke-linejoin:miter;stroke-miterlimit:4;stroke-dasharray:1.2, 1.2;stroke-dashoffset:0;stroke-opacity:1" />
      <path
         inkscape:connector-curvature="0"
         id="path5662"
         d="M 68.099772,154.00643 V 95.987078 h -56.31845"
         style="fill:none;stroke:#ff1800;stroke-width:0.40000001;stroke-linecap:butt;stroke-linejoin:miter;stroke-miterlimit:4;stroke-dasharray:1.2, 1.2;stroke-dashoffset:0;stroke-opacity:1" />
      <text
         id="text4272-0"
         y="133.35805"
         x="19.58762"
         style="font-style:normal;font-weight:normal;font-size:10.58333302px;line-height:1.25;font-family:sans-serif;letter-spacing:0px;word-spacing:0px;fill:#0023ff;fill-opacity:1;stroke:none;stroke-width:0.26458332"
         xml:space="preserve"><tspan
           style="font-style:normal;font-variant:normal;font-weight:normal;font-stretch:normal;font-size:4.93888903px;font-family:'TeX Gyre Schola';-inkscape-font-specification:'TeX Gyre Schola';fill:#0023ff;stroke-width:0.26458332"
           y="133.35805"
           x="19.58762"
           id="tspan4270-21"
           sodipodi:role="line">1</tspan></text>
      <text
         id="text4272-0-3"
         y="141.00385"
         x="78.345238"
         style="font-style:normal;font-weight:normal;font-size:10.58333302px;line-height:1.25;font-family:sans-serif;letter-spacing:0px;word-spacing:0px;fill:#00ff24;fill-opacity:1;stroke:none;stroke-width:0.26458332"
         xml:space="preserve"><tspan
           style="font-style:normal;font-variant:normal;font-weight:normal;font-stretch:normal;font-size:4.93888903px;font-family:'TeX Gyre Schola';-inkscape-font-specification:'TeX Gyre Schola';fill:#00ff24;stroke-width:0.26458332"
           y="141.00385"
           x="78.345238"
           id="tspan4270-21-8"
           sodipodi:role="line">2</tspan></text>
      <text
         id="text4272-0-5"
         y="91.82914"
         x="70.218758"
         style="font-style:normal;font-weight:normal;font-size:10.58333302px;line-height:1.25;font-family:sans-serif;letter-spacing:0px;word-spacing:0px;fill:#ff1800;fill-opacity:1;stroke:none;stroke-width:0.26458332"
         xml:space="preserve"><tspan
           style="font-style:normal;font-variant:normal;font-weight:normal;font-stretch:normal;font-size:4.93888903px;font-family:'TeX Gyre Schola';-inkscape-font-specification:'TeX Gyre Schola';fill:#ff1800;stroke-width:0.26458332"
           y="91.82914"
           x="70.218758"
           id="tspan4270-21-2"
           sodipodi:role="line">3</tspan></text>
      <text
         id="text4272-0-3-2"
         y="159.1467"
         x="72.825691"
         style="font-style:normal;font-weight:normal;font-size:10.58333302px;line-height:1.25;font-family:sans-serif;letter-spacing:0px;word-spacing:0px;fill:#00ff24;fill-opacity:1;stroke:none;stroke-width:0.26458332"
         xml:space="preserve"><tspan
           style="font-style:normal;font-variant:normal;font-weight:normal;font-stretch:normal;font-size:4.93888903px;font-family:'TeX Gyre Schola';-inkscape-font-specification:'TeX Gyre Schola';fill:#00ff24;stroke-width:0.26458332"
           y="159.1467"
           x="72.825691"
           id="tspan4270-21-8-2"
           sodipodi:role="line">X2</tspan></text>
      <text
         id="text4272-0-3-2-7"
         y="159.1467"
         x="65.423988"
         style="font-style:normal;font-weight:normal;font-size:10.58333302px;line-height:1.25;font-family:sans-serif;letter-spacing:0px;word-spacing:0px;fill:#ff1800;fill-opacity:1;stroke:none;stroke-width:0.26458332"
         xml:space="preserve"><tspan
           style="font-style:normal;font-variant:normal;font-weight:normal;font-stretch:normal;font-size:4.93888903px;font-family:'TeX Gyre Schola';-inkscape-font-specification:'TeX Gyre Schola';fill:#ff1800;stroke-width:0.26458332"
           y="159.1467"
           x="65.423988"
           id="tspan4270-21-8-2-7"
           sodipodi:role="line">X3</tspan></text>
      <text
         id="text4272-0-3-2-4"
         y="159.1467"
         x="14.805995"
         style="font-style:normal;font-weight:normal;font-size:10.58333302px;line-height:1.25;font-family:sans-serif;letter-spacing:0px;word-spacing:0px;fill:#0023ff;fill-opacity:1;stroke:none;stroke-width:0.26458332"
         xml:space="preserve"><tspan
           style="font-style:normal;font-variant:normal;font-weight:normal;font-stretch:normal;font-size:4.93888903px;font-family:'TeX Gyre Schola';-inkscape-font-specification:'TeX Gyre Schola';fill:#0023ff;stroke-width:0.26458332"
           y="159.1467"
           x="14.805995"
           id="tspan4270-21-8-2-1"
           sodipodi:role="line">X1</tspan></text>
      <text
         id="text4272-0-3-2-1"
         y="146.33835"
         x="3.8968916"
         style="font-style:normal;font-weight:normal;font-size:10.58333302px;line-height:1.25;font-family:sans-serif;letter-spacing:0px;word-spacing:0px;fill:#00ff24;fill-opacity:1;stroke:none;stroke-width:0.26458332"
         xml:space="preserve"><tspan
           style="font-style:normal;font-variant:normal;font-weight:normal;font-stretch:normal;font-size:4.93888903px;font-family:'TeX Gyre Schola';-inkscape-font-specification:'TeX Gyre Schola';fill:#00ff24;stroke-width:0.26458332"
           y="146.33835"
           x="3.8968916"
           id="tspan4270-21-8-2-9"
           sodipodi:role="line">Y2</tspan></text>
      <text
         id="text4272-0-3-2-13"
         y="138.55249"
         x="3.9413404"
         style="font-style:normal;font-weight:normal;font-size:10.58333302px;line-height:1.25;font-family:sans-serif;letter-spacing:0px;word-spacing:0px;fill:#0023ff;fill-opacity:1;stroke:none;stroke-width:0.26458332"
         xml:space="preserve"><tspan
           style="font-style:normal;font-variant:normal;font-weight:normal;font-stretch:normal;font-size:4.93888903px;font-family:'TeX Gyre Schola';-inkscape-font-specification:'TeX Gyre Schola';fill:#0023ff;stroke-width:0.26458332"
           y="138.55249"
           x="3.9413404"
           id="tspan4270-21-8-2-8"
           sodipodi:role="line">Y1</tspan></text>
      <text
         id="text4272-0-3-2-74"
         y="97.390968"
         x="3.9314604"
         style="font-style:normal;font-weight:normal;font-size:10.58333302px;line-height:1.25;font-family:sans-serif;letter-spacing:0px;word-spacing:0px;fill:#ff1800;fill-opacity:1;stroke:none;stroke-width:0.26458332"
         xml:space="preserve"><tspan
           style="font-style:normal;font-variant:normal;font-weight:normal;font-stretch:normal;font-size:4.93888903px;font-family:'TeX Gyre Schola';-inkscape-font-specification:'TeX Gyre Schola';fill:#ff1800;stroke-width:0.26458332"
           y="97.390968"
           x="3.9314604"
           id="tspan4270-21-8-2-93"
           sodipodi:role="line">Y3</tspan></text>
      <circle
         r="2.5390604"
         cy="100.71178"
         cx="52.035793"
         id="path4247-9"
         style="opacity:1;fill:#848484;fill-opacity:1;stroke:none;stroke-width:0.9000001;stroke-miterlimit:4;stroke-dasharray:none;stroke-dashoffset:0;stroke-opacity:0.31372549" />
      <text
         id="text4272-0-5-3"
         y="106.38197"
         x="45.032635"
         style="font-style:normal;font-weight:normal;font-size:10.58333302px;line-height:1.25;font-family:sans-serif;letter-spacing:0px;word-spacing:0px;fill:#848484;fill-opacity:1;stroke:none;stroke-width:0.26458332"
         xml:space="preserve"><tspan
           style="font-style:normal;font-variant:normal;font-weight:normal;font-stretch:normal;font-size:4.93888903px;font-family:'TeX Gyre Schola';-inkscape-font-specification:'TeX Gyre Schola';fill:#848484;stroke-width:0.26458332"
           y="106.38197"
           x="45.032635"
           id="tspan4270-21-2-8"
           sodipodi:role="line">P</tspan></text>
      <path
         inkscape:connector-curvature="0"
         id="path5830"
         d="M 52.035782,153.62845 V 100.71178 H 11.781322"
         style="fill:none;stroke:#848484;stroke-width:0.40000001;stroke-linecap:butt;stroke-linejoin:miter;stroke-miterlimit:4;stroke-dasharray:1.2, 1.2;stroke-dashoffset:0;stroke-opacity:1" />
      <text
         id="text4272-0-3-2-7-8"
         y="159.1467"
         x="48.990978"
         style="font-style:normal;font-weight:normal;font-size:10.58333302px;line-height:1.25;font-family:sans-serif;letter-spacing:0px;word-spacing:0px;fill:#848484;fill-opacity:1;stroke:none;stroke-width:0.26458332"
         xml:space="preserve"><tspan
           style="font-style:normal;font-variant:normal;font-weight:normal;font-stretch:normal;font-size:4.93888903px;font-family:'TeX Gyre Schola';-inkscape-font-specification:'TeX Gyre Schola';fill:#848484;stroke-width:0.26458332"
           y="159.1467"
           x="48.990978"
           id="tspan4270-21-8-2-7-4"
           sodipodi:role="line">Xp</tspan></text>
      <text
         id="text4272-0-3-2-74-0"
         y="101.9959"
         x="4.0944548"
         style="font-style:normal;font-weight:normal;font-size:10.58333302px;line-height:1.25;font-family:sans-serif;letter-spacing:0px;word-spacing:0px;fill:#848484;fill-opacity:1;stroke:none;stroke-width:0.26458332"
         xml:space="preserve"><tspan
           style="font-style:normal;font-variant:normal;font-weight:normal;font-stretch:normal;font-size:4.93888903px;font-family:'TeX Gyre Schola';-inkscape-font-specification:'TeX Gyre Schola';fill:#848484;stroke-width:0.26458332"
           y="101.9959"
           x="4.0944548"
           id="tspan4270-21-8-2-93-0"
           sodipodi:role="line">Yp</tspan></text>
      <text
         id="text1813-4-5"
         y="78.113129"
         x="87.324409"
         style="font-style:normal;font-variant:normal;font-weight:bold;font-stretch:normal;font-size:7.76111126px;line-height:1.25;font-family:'TeX Gyre Schola';-inkscape-font-specification:'TeX Gyre Schola Bold';letter-spacing:0px;word-spacing:0px;fill:#000000;fill-opacity:1;stroke:none;stroke-width:0.26458332"
         xml:space="preserve"><tspan
           style="font-style:normal;font-variant:normal;font-weight:bold;font-stretch:normal;font-size:7.76111126px;font-family:'TeX Gyre Schola';-inkscape-font-specification:'TeX Gyre Schola Bold';stroke-width:0.26458332"
           y="78.113129"
           x="87.324409"
           id="tspan1811-3-4"
           sodipodi:role="line">A</tspan></text>
    </g>
    <g
       id="g6581">
      <path
         inkscape:connector-curvature="0"
         id="path1794-2-3"
         d="M 112.4774,153.96974 V 73.96973"
         style="fill:none;stroke:#000000;stroke-width:0.80000001;stroke-linecap:butt;stroke-linejoin:miter;stroke-miterlimit:4;stroke-dasharray:none;stroke-opacity:1;marker-end:url(#marker2465-9-8)" />
      <path
         inkscape:connector-curvature="0"
         id="path1794-6-0-8"
         d="m 112.4774,153.96974 h 80"
         style="fill:none;stroke:#000000;stroke-width:0.80000001;stroke-linecap:butt;stroke-linejoin:miter;stroke-miterlimit:4;stroke-dasharray:none;stroke-opacity:1;marker-end:url(#Arrow1Mend-3-8)" />
      <text
         transform="rotate(-90)"
         id="text1813-1-5"
         y="109.41879"
         x="-120.80496"
         style="font-style:normal;font-weight:normal;font-size:10.58333302px;line-height:1.25;font-family:sans-serif;letter-spacing:0px;word-spacing:0px;fill:#000000;fill-opacity:1;stroke:none;stroke-width:0.26458332"
         xml:space="preserve"><tspan
           style="font-style:normal;font-variant:normal;font-weight:normal;font-stretch:normal;font-size:7.05555534px;font-family:'TeX Gyre Schola';-inkscape-font-specification:'TeX Gyre Schola';stroke-width:0.26458332"
           y="109.41879"
           x="-120.80496"
           id="tspan1811-9-0"
           sodipodi:role="line">Bleu</tspan></text>
      <text
         id="text1813-4-6-5"
         y="163.69836"
         x="146.86276"
         style="font-style:normal;font-weight:normal;font-size:10.58333302px;line-height:1.25;font-family:sans-serif;letter-spacing:0px;word-spacing:0px;fill:#000000;fill-opacity:1;stroke:none;stroke-width:0.26458332"
         xml:space="preserve"><tspan
           style="font-style:normal;font-variant:normal;font-weight:normal;font-stretch:normal;font-size:7.05555534px;font-family:'TeX Gyre Schola';-inkscape-font-specification:'TeX Gyre Schola';stroke-width:0.26458332"
           y="163.69836"
           x="146.86276"
           id="tspan1811-3-2-9"
           sodipodi:role="line">PIR</tspan></text>
      <text
         id="text1813-4-6-4-5-5"
         y="160.90483"
         x="110.20088"
         style="font-style:normal;font-weight:normal;font-size:10.58333302px;line-height:1.25;font-family:sans-serif;letter-spacing:0px;word-spacing:0px;fill:#000000;fill-opacity:1;stroke:none;stroke-width:0.26458332"
         xml:space="preserve"><tspan
           style="font-style:normal;font-variant:normal;font-weight:normal;font-stretch:normal;font-size:7.05555534px;font-family:'TeX Gyre Schola';-inkscape-font-specification:'TeX Gyre Schola';stroke-width:0.26458332"
           y="160.90483"
           x="110.20088"
           id="tspan1811-3-2-1-16-2"
           sodipodi:role="line">0</tspan></text>
      <text
         id="text1813-4-6-4-7-6-8"
         y="161.01068"
         x="190.55438"
         style="font-style:normal;font-weight:normal;font-size:10.58333302px;line-height:1.25;font-family:sans-serif;letter-spacing:0px;word-spacing:0px;fill:#000000;fill-opacity:1;stroke:none;stroke-width:0.26458332"
         xml:space="preserve"><tspan
           style="font-style:normal;font-variant:normal;font-weight:normal;font-stretch:normal;font-size:7.05555534px;font-family:'TeX Gyre Schola';-inkscape-font-specification:'TeX Gyre Schola';stroke-width:0.26458332"
           y="161.01068"
           x="190.55438"
           id="tspan1811-3-2-1-1-2-3"
           sodipodi:role="line">1</tspan></text>
      <text
         id="text1813-4-6-4-1-1-6"
         y="155.44797"
         x="106.05934"
         style="font-style:normal;font-weight:normal;font-size:10.58333302px;line-height:1.25;font-family:sans-serif;letter-spacing:0px;word-spacing:0px;fill:#000000;fill-opacity:1;stroke:none;stroke-width:0.26458332"
         xml:space="preserve"><tspan
           style="font-style:normal;font-variant:normal;font-weight:normal;font-stretch:normal;font-size:7.05555534px;font-family:'TeX Gyre Schola';-inkscape-font-specification:'TeX Gyre Schola';stroke-width:0.26458332"
           y="155.44797"
           x="106.05934"
           id="tspan1811-3-2-1-17-9-7"
           sodipodi:role="line">0</tspan></text>
      <text
         id="text1813-4-6-4-7-0-6-8"
         y="77.360298"
         x="106.18635"
         style="font-style:normal;font-weight:normal;font-size:10.58333302px;line-height:1.25;font-family:sans-serif;letter-spacing:0px;word-spacing:0px;fill:#000000;fill-opacity:1;stroke:none;stroke-width:0.26458332"
         xml:space="preserve"><tspan
           style="font-style:normal;font-variant:normal;font-weight:normal;font-stretch:normal;font-size:7.05555534px;font-family:'TeX Gyre Schola';-inkscape-font-specification:'TeX Gyre Schola';stroke-width:0.26458332"
           y="77.360298"
           x="106.18635"
           id="tspan1811-3-2-1-1-4-4-7"
           sodipodi:role="line">1</tspan></text>
      <text
         id="text4272-0-2"
         y="132.29973"
         x="118.69151"
         style="font-style:normal;font-weight:normal;font-size:10.58333302px;line-height:1.25;font-family:sans-serif;letter-spacing:0px;word-spacing:0px;fill:#0023ff;fill-opacity:1;stroke:none;stroke-width:0.26458332"
         xml:space="preserve"><tspan
           style="font-style:normal;font-variant:normal;font-weight:normal;font-stretch:normal;font-size:4.93888903px;font-family:'TeX Gyre Schola';-inkscape-font-specification:'TeX Gyre Schola';fill:#0023ff;stroke-width:0.26458332"
           y="132.29973"
           x="118.69151"
           id="tspan4270-21-9"
           sodipodi:role="line">1</tspan></text>
      <text
         id="text4272-0-3-7"
         y="141.00386"
         x="179.03662"
         style="font-style:normal;font-weight:normal;font-size:10.58333302px;line-height:1.25;font-family:sans-serif;letter-spacing:0px;word-spacing:0px;fill:#00ff24;fill-opacity:1;stroke:none;stroke-width:0.26458332"
         xml:space="preserve"><tspan
           style="font-style:normal;font-variant:normal;font-weight:normal;font-stretch:normal;font-size:4.93888903px;font-family:'TeX Gyre Schola';-inkscape-font-specification:'TeX Gyre Schola';fill:#00ff24;stroke-width:0.26458332"
           y="141.00386"
           x="179.03662"
           id="tspan4270-21-8-0"
           sodipodi:role="line">2</tspan></text>
      <text
         id="text4272-0-5-37"
         y="91.82914"
         x="170.91014"
         style="font-style:normal;font-weight:normal;font-size:10.58333302px;line-height:1.25;font-family:sans-serif;letter-spacing:0px;word-spacing:0px;fill:#ff1800;fill-opacity:1;stroke:none;stroke-width:0.26458332"
         xml:space="preserve"><tspan
           style="font-style:normal;font-variant:normal;font-weight:normal;font-stretch:normal;font-size:4.93888903px;font-family:'TeX Gyre Schola';-inkscape-font-specification:'TeX Gyre Schola';fill:#ff1800;stroke-width:0.26458332"
           y="91.82914"
           x="170.91014"
           id="tspan4270-21-2-2"
           sodipodi:role="line">3</tspan></text>
      <path
         inkscape:connector-curvature="0"
         id="path6242"
         d="m 152.70238,100.26267 16.44196,-4.346725"
         style="fill:none;stroke:#ff1800;stroke-width:0.40000001;stroke-linecap:butt;stroke-linejoin:miter;stroke-miterlimit:4;stroke-dasharray:1.6, 0.8, 0.4, 0.8;stroke-dashoffset:0;stroke-opacity:1" />
      <path
         sodipodi:nodetypes="cc"
         inkscape:connector-curvature="0"
         id="path6242-4"
         d="M 176.04242,144.95836 152.70238,100.26267"
         style="fill:none;stroke:#00ff24;stroke-width:0.40000001;stroke-linecap:butt;stroke-linejoin:miter;stroke-miterlimit:4;stroke-dasharray:1.60000002, 0.80000001, 0.4, 0.80000001;stroke-dashoffset:0;stroke-opacity:1" />
      <path
         sodipodi:nodetypes="cc"
         inkscape:connector-curvature="0"
         id="path6242-5"
         d="m 118.21206,136.45389 34.49032,-36.19122"
         style="fill:none;stroke:#0023ff;stroke-width:0.40000001;stroke-linecap:butt;stroke-linejoin:miter;stroke-miterlimit:4;stroke-dasharray:1.60000002, 0.80000001, 0.4, 0.80000001;stroke-dashoffset:0;stroke-opacity:1" />
      <circle
         r="2.5390604"
         cy="136.58055"
         cx="118.44589"
         id="path4247-2"
         style="opacity:1;fill:#0023ff;fill-opacity:1;stroke:none;stroke-width:0.9000001;stroke-miterlimit:4;stroke-dasharray:none;stroke-dashoffset:0;stroke-opacity:0.31372549" />
      <circle
         r="2.5390604"
         cy="95.645065"
         cx="169.06882"
         id="path4247-7-6"
         style="opacity:1;fill:#ff1800;fill-opacity:1;stroke:none;stroke-width:0.9000001;stroke-miterlimit:4;stroke-dasharray:none;stroke-dashoffset:0;stroke-opacity:0.31372549" />
      <circle
         r="2.5390604"
         cy="144.55542"
         cx="176.48781"
         id="path4247-8-8"
         style="opacity:1;fill:#00ff24;fill-opacity:1;stroke:none;stroke-width:0.9000001;stroke-miterlimit:4;stroke-dasharray:none;stroke-dashoffset:0;stroke-opacity:0.31372549" />
      <text
         id="text4272-0-5-3-8"
         y="98.520065"
         x="148.02968"
         style="font-style:normal;font-weight:normal;font-size:10.58333302px;line-height:1.25;font-family:sans-serif;letter-spacing:0px;word-spacing:0px;fill:#848484;fill-opacity:1;stroke:none;stroke-width:0.26458332"
         xml:space="preserve"><tspan
           style="font-style:normal;font-variant:normal;font-weight:normal;font-stretch:normal;font-size:4.93888903px;font-family:'TeX Gyre Schola';-inkscape-font-specification:'TeX Gyre Schola';fill:#848484;stroke-width:0.26458332"
           y="98.520065"
           x="148.02968"
           id="tspan4270-21-2-8-7"
           sodipodi:role="line">P</tspan></text>
      <circle
         r="2.5390604"
         cy="100.71178"
         cx="152.72717"
         id="path4247-9-4"
         style="opacity:1;fill:#848484;fill-opacity:1;stroke:none;stroke-width:0.9000001;stroke-miterlimit:4;stroke-dasharray:none;stroke-dashoffset:0;stroke-opacity:0.31372549" />
      <text
         id="text4272-0-5-37-7"
         y="102.53108"
         x="159.30638"
         style="font-style:normal;font-weight:normal;font-size:10.58333302px;line-height:1.25;font-family:sans-serif;letter-spacing:0px;word-spacing:0px;fill:#ff1800;fill-opacity:1;stroke:none;stroke-width:0.26458332"
         xml:space="preserve"><tspan
           style="font-style:normal;font-variant:normal;font-weight:normal;font-stretch:normal;font-size:4.93888903px;font-family:'TeX Gyre Schola';-inkscape-font-specification:'TeX Gyre Schola';fill:#ff1800;stroke-width:0.26458332"
           y="102.53108"
           x="159.30638"
           id="tspan4270-21-2-2-0"
           sodipodi:role="line">d3</tspan></text>
      <text
         id="text4272-0-3-7-7"
         y="121.65591"
         x="165.16501"
         style="font-style:normal;font-weight:normal;font-size:10.58333302px;line-height:1.25;font-family:sans-serif;letter-spacing:0px;word-spacing:0px;fill:#00ff24;fill-opacity:1;stroke:none;stroke-width:0.26458332"
         xml:space="preserve"><tspan
           style="font-style:normal;font-variant:normal;font-weight:normal;font-stretch:normal;font-size:4.93888903px;font-family:'TeX Gyre Schola';-inkscape-font-specification:'TeX Gyre Schola';fill:#00ff24;stroke-width:0.26458332"
           y="121.65591"
           x="165.16501"
           id="tspan4270-21-8-0-8"
           sodipodi:role="line">d2</tspan></text>
      <text
         id="text4272-0-2-9"
         y="122.41187"
         x="135.35559"
         style="font-style:normal;font-weight:normal;font-size:10.58333302px;line-height:1.25;font-family:sans-serif;letter-spacing:0px;word-spacing:0px;fill:#0023ff;fill-opacity:1;stroke:none;stroke-width:0.26458332"
         xml:space="preserve"><tspan
           style="font-style:normal;font-variant:normal;font-weight:normal;font-stretch:normal;font-size:4.93888903px;font-family:'TeX Gyre Schola';-inkscape-font-specification:'TeX Gyre Schola';fill:#0023ff;stroke-width:0.26458332"
           y="122.41187"
           x="135.35559"
           id="tspan4270-21-9-9"
           sodipodi:role="line">d1</tspan></text>
      <text
         id="text1813-4-5-4"
         y="77.996712"
         x="188.34177"
         style="font-style:normal;font-variant:normal;font-weight:bold;font-stretch:normal;font-size:7.76111126px;line-height:1.25;font-family:'TeX Gyre Schola';-inkscape-font-specification:'TeX Gyre Schola Bold';letter-spacing:0px;word-spacing:0px;fill:#000000;fill-opacity:1;stroke:none;stroke-width:0.26458332"
         xml:space="preserve"><tspan
           style="font-style:normal;font-variant:normal;font-weight:bold;font-stretch:normal;font-size:7.76111126px;font-family:'TeX Gyre Schola';-inkscape-font-specification:'TeX Gyre Schola Bold';stroke-width:0.26458332"
           y="77.996712"
           x="188.34177"
           id="tspan1811-3-4-5"
           sodipodi:role="line">B</tspan></text>
    </g>
  </g>
</svg>
